<?xml version="1.0" encoding="UTF-8" standalone="no"?>
<!DOCTYPE svg PUBLIC "-//W3C//DTD SVG 1.1//EN" "http://www.w3.org/Graphics/SVG/1.1/DTD/svg11.dtd">
<svg width="100%" height="100%" viewBox="0 0 800 400" version="1.1" xmlns="http://www.w3.org/2000/svg" xmlns:xlink="http://www.w3.org/1999/xlink" xml:space="preserve" xmlns:serif="http://www.serif.com/" style="fill-rule:evenodd;clip-rule:evenodd;stroke-linecap:round;stroke-linejoin:round;stroke-miterlimit:1.5;">
    <g id="Liudnas">
        <g transform="matrix(1.16455,-1.16455,1.16455,1.16455,-464.799,500.196)">
            <path d="M447.233,127.205C447.233,115.753 437.936,106.455 426.484,106.455L384.984,106.455C373.532,106.455 364.234,115.753 364.234,127.205L364.234,168.705C364.234,180.157 373.532,189.455 384.984,189.455L426.484,189.455C437.936,189.455 447.233,180.157 447.233,168.705L447.233,127.205Z" style="fill:white;stroke:rgb(9,0,159);stroke-width:5.34px;stroke-dasharray:10.67,10.67,0,0;stroke-dashoffset:21.34;"/>
        </g>
        <g transform="matrix(1.78316,0,0,1.78316,-155.823,-105.868)">
            <circle cx="435.084" cy="171.532" r="79.511" style="fill:rgb(0,255,149);"/>
        </g>
    </g>
</svg>
